<?xml version="1.0" encoding="UTF-8" standalone="no"?>
<svg id="svg2" xmlns:rdf="http://www.w3.org/1999/02/22-rdf-syntax-ns#" xmlns="http://www.w3.org/2000/svg" height="89.999" width="90.164" version="1.2" xmlns:foaf="http://xmlns.com/foaf/0.1/" xmlns:cc="http://creativecommons.org/ns#" xmlns:xlink="http://www.w3.org/1999/xlink" xmlns:dc="http://purl.org/dc/elements/1.1/">
 <title id="title4">weather</title>
 <desc id="desc6">various weather icons: cloudy, hail showers, hail, heavy rain showers, heavy rain, heavy snow showers, heavy-snow, light rain showers, light rain, light snow showers, light snow, sleet showers, sleet, sunny intervals, sunny, thundery showers</desc>
 <metadata id="metadata8">
  <rdf:RDF>
   <cc:Work rdf:about="http://upload.wikimedia.org/wikipedia/commons/5/50/Weather-icons.svg">
    <dc:title xml:lang="en">weather</dc:title>
    <dc:description xml:lang="en">“various weather icons: cloudy, hail showers, hail, heavy rain showers, heavy rain, heavy snow showers, heavy-snow, light rain showers, light rain, light snow showers, light snow, sleet showers, sleet, sunny intervals, sunny, thundery showers&quot;</dc:description>
    <dc:creator>
     <cc:Agent>
      <dc:title xml:lang="cy">
       <foaf:Person>
        <foaf:name>Jonathan Chetwynd</foaf:name>
        <foaf:mbox>j.chetwynd@btinternet.com</foaf:mbox>
       </foaf:Person>
      </dc:title>
     </cc:Agent>
    </dc:creator>
    <dc:rights>
     <cc:Agent>
      <dc:title xml:lang="cy">
       <foaf:Person>
        <foaf:name>Jonathan Chetwynd</foaf:name>
        <foaf:mbox>j.chetwynd@btinternet.com</foaf:mbox>
       </foaf:Person>
      </dc:title>
     </cc:Agent>
    </dc:rights>
    <dc:date>2007/09/07</dc:date>
    <dc:format>image/svg+xml</dc:format>
    <dc:type rdf:resource="http://purl.org/dc/dcmitype/InteractiveResource"/>
    <cc:license rdf:resource="http://web.resource.org/cc/PublicDomain"/>
   </cc:Work>
   <cc:License rdf:about="http://web.resource.org/cc/PublicDomain">
    <cc:permits rdf:resource="http://web.resource.org/cc/Reproduction"/>
    <cc:permits rdf:resource="http://web.resource.org/cc/Distribution"/>
    <cc:permits rdf:resource="http://web.resource.org/cc/DerivativeWorks"/>
   </cc:License>
  </rdf:RDF>
 </metadata>
 <defs id="defs10">
  <style id="css" type="text/css"><![CDATA[
#cloud2 {stroke:#666; stroke-width:12; stroke-linecap:round; fill:none;}
]]></style>
  <symbol id="sunny" viewBox="0 0 150 150">
   <title id="title197">sunny</title>
   <g id="g199" stroke-width="7" stroke="#555">
    <line id="line201" y2="75" transform="matrix(.93969 -.34202 .34202 .93969 -21.128 30.175)" x2="39" y1="75" x1="22"/>
    <line id="line203" y2="75" transform="matrix(.99756 .069756 -.069756 .99756 5.4144 -5.049)" x2="39" y1="75" x1="22"/>
    <line id="line205" y2="75" transform="matrix(.88295 .46947 -.46947 .88295 43.989 -26.431)" x2="39" y1="75" x1="22"/>
    <line id="line207" y2="75" transform="matrix(.61566 .78801 -.78801 .61566 87.926 -30.275)" x2="39" y1="75" x1="22"/>
    <line id="line209" y2="75" transform="matrix(.24192 .97030 -.97030 .24192 129.63 -15.916)" x2="39" y1="75" x1="22"/>
    <line id="line211" y2="75" transform="matrix(-.17365 .98481 -.98481 -.17365 161.88 14.163)" x2="39" y1="75" x1="22"/>
    <line id="line213" y2="75" transform="matrix(-.55919 .82904 -.82904 -.55919 179.12 54.762)" x2="39" y1="75" x1="22"/>
    <line id="line215" y2="75" transform="matrix(-.84805 .52992 -.52992 -.84805 178.35 98.86)" x2="39" y1="75" x1="22"/>
    <line id="line217" y2="75" transform="matrix(-.99027 .13917 -.13917 -.99027 159.71 138.83)" x2="39" y1="75" x1="22"/>
    <line id="line219" y2="75" transform="matrix(-.96126 -.27564 .27564 -.96126 126.42 167.77)" x2="39" y1="75" x1="22"/>
    <line id="line221" y2="75" transform="matrix(-.76604 -.64279 .64279 -.76604 84.244 180.66)" x2="39" y1="75" x1="22"/>
    <line id="line223" y2="75" transform="matrix(-.43837 -.89879 .89879 -.43837 40.468 175.29)" x2="39" y1="75" x1="22"/>
    <line id="line225" y2="75" transform="matrix(-0.0349 -.99939 .99939 -0.0349 2.6632 152.57)" x2="39" y1="75" x1="22"/>
    <line id="line227" y2="75" transform="matrix(.37461 -.92718 .92718 .37461 -22.634 116.44)" x2="39" y1="75" x1="22"/>
    <line id="line229" y2="75" transform="matrix(.71934 -.69466 .69466 .71934 -31.05 73.149)" x2="39" y1="75" x1="22"/>
    <circle id="circle231" cy="75" cx="75" r="25" fill="#555"/>
   </g>
  </symbol>
 </defs>
 <g id="g310" transform="translate(-513.53 -665.73)">
  <use id="use340" xlink:href="#sunny" transform="matrix(8.3281 0 0 8.3281 -1542 -5713.5)" height="30.000002%" width="15.000001%" y="757.70081" x="245.55119"/>
 </g>
</svg>
